PCBNEW-LibModule-V1  
# encoding utf-8
Units mm
$INDEX
BGA289C80P17X17_1400X1400X132
$EndINDEX
$MODULE BGA289C80P17X17_1400X1400X132
Po 0 0 0 15 00000000 00000000 ~~
Li BGA289C80P17X17_1400X1400X132
Cd 
Sc 00000000
At SMD
Op 0 0 0
.SolderMask 0
.SolderPaste 0
T0 -6.5621 -12.1677 1.4713 1.4713 0 0.05 N V 21 "BGA289C80P17X17_1400X1400X132"
T1 -5.6462 12.2082 1.47635 1.47635 0 0.05 N V 21 "VAL**"
DS -7 7 7 7 0.2032 21
DS 7 7 7 -7 0.2032 21
DS 7 -7 -7 -7 0.2032 21
DS -7 -7 -7 7 0.2032 21
DS -8 -8 8 -8 0.05 26
DS 8 -8 8 8 0.05 26
DS 8 8 -8 8 0.05 26
DS -8 8 -8 -8 0.05 26
DC -7.6 -6.4 -7.5 -6.4 0.2 21
$PAD
Sh "U17" C 0.35 0.35 0 0 0
At SMD N 00888000
.SolderMask 0
.SolderPaste 0
Ne 0 ""
Po 6.4 6.4
$EndPAD
$PAD
Sh "U16" C 0.35 0.35 0 0 0
At SMD N 00888000
.SolderMask 0
.SolderPaste 0
Ne 0 ""
Po 5.6 6.4
$EndPAD
$PAD
Sh "U15" C 0.35 0.35 0 0 0
At SMD N 00888000
.SolderMask 0
.SolderPaste 0
Ne 0 ""
Po 4.8 6.4
$EndPAD
$PAD
Sh "U14" C 0.35 0.35 0 0 0
At SMD N 00888000
.SolderMask 0
.SolderPaste 0
Ne 0 ""
Po 4 6.4
$EndPAD
$PAD
Sh "U13" C 0.35 0.35 0 0 0
At SMD N 00888000
.SolderMask 0
.SolderPaste 0
Ne 0 ""
Po 3.2 6.4
$EndPAD
$PAD
Sh "U12" C 0.35 0.35 0 0 0
At SMD N 00888000
.SolderMask 0
.SolderPaste 0
Ne 0 ""
Po 2.4 6.4
$EndPAD
$PAD
Sh "U11" C 0.35 0.35 0 0 0
At SMD N 00888000
.SolderMask 0
.SolderPaste 0
Ne 0 ""
Po 1.6 6.4
$EndPAD
$PAD
Sh "U10" C 0.35 0.35 0 0 0
At SMD N 00888000
.SolderMask 0
.SolderPaste 0
Ne 0 ""
Po 0.8 6.4
$EndPAD
$PAD
Sh "U9" C 0.35 0.35 0 0 0
At SMD N 00888000
.SolderMask 0
.SolderPaste 0
Ne 0 ""
Po 0 6.4
$EndPAD
$PAD
Sh "U8" C 0.35 0.35 0 0 0
At SMD N 00888000
.SolderMask 0
.SolderPaste 0
Ne 0 ""
Po -0.8 6.4
$EndPAD
$PAD
Sh "U7" C 0.35 0.35 0 0 0
At SMD N 00888000
.SolderMask 0
.SolderPaste 0
Ne 0 ""
Po -1.6 6.4
$EndPAD
$PAD
Sh "U6" C 0.35 0.35 0 0 0
At SMD N 00888000
.SolderMask 0
.SolderPaste 0
Ne 0 ""
Po -2.4 6.4
$EndPAD
$PAD
Sh "U5" C 0.35 0.35 0 0 0
At SMD N 00888000
.SolderMask 0
.SolderPaste 0
Ne 0 ""
Po -3.2 6.4
$EndPAD
$PAD
Sh "U4" C 0.35 0.35 0 0 0
At SMD N 00888000
.SolderMask 0
.SolderPaste 0
Ne 0 ""
Po -4 6.4
$EndPAD
$PAD
Sh "U3" C 0.35 0.35 0 0 0
At SMD N 00888000
.SolderMask 0
.SolderPaste 0
Ne 0 ""
Po -4.8 6.4
$EndPAD
$PAD
Sh "U2" C 0.35 0.35 0 0 0
At SMD N 00888000
.SolderMask 0
.SolderPaste 0
Ne 0 ""
Po -5.6 6.4
$EndPAD
$PAD
Sh "U1" C 0.35 0.35 0 0 0
At SMD N 00888000
.SolderMask 0
.SolderPaste 0
Ne 0 ""
Po -6.4 6.4
$EndPAD
$PAD
Sh "T17" C 0.35 0.35 0 0 0
At SMD N 00888000
.SolderMask 0
.SolderPaste 0
Ne 0 ""
Po 6.4 5.6
$EndPAD
$PAD
Sh "T16" C 0.35 0.35 0 0 0
At SMD N 00888000
.SolderMask 0
.SolderPaste 0
Ne 0 ""
Po 5.6 5.6
$EndPAD
$PAD
Sh "T15" C 0.35 0.35 0 0 0
At SMD N 00888000
.SolderMask 0
.SolderPaste 0
Ne 0 ""
Po 4.8 5.6
$EndPAD
$PAD
Sh "T14" C 0.35 0.35 0 0 0
At SMD N 00888000
.SolderMask 0
.SolderPaste 0
Ne 0 ""
Po 4 5.6
$EndPAD
$PAD
Sh "T13" C 0.35 0.35 0 0 0
At SMD N 00888000
.SolderMask 0
.SolderPaste 0
Ne 0 ""
Po 3.2 5.6
$EndPAD
$PAD
Sh "T12" C 0.35 0.35 0 0 0
At SMD N 00888000
.SolderMask 0
.SolderPaste 0
Ne 0 ""
Po 2.4 5.6
$EndPAD
$PAD
Sh "T11" C 0.35 0.35 0 0 0
At SMD N 00888000
.SolderMask 0
.SolderPaste 0
Ne 0 ""
Po 1.6 5.6
$EndPAD
$PAD
Sh "T10" C 0.35 0.35 0 0 0
At SMD N 00888000
.SolderMask 0
.SolderPaste 0
Ne 0 ""
Po 0.8 5.6
$EndPAD
$PAD
Sh "T9" C 0.35 0.35 0 0 0
At SMD N 00888000
.SolderMask 0
.SolderPaste 0
Ne 0 ""
Po 0 5.6
$EndPAD
$PAD
Sh "T8" C 0.35 0.35 0 0 0
At SMD N 00888000
.SolderMask 0
.SolderPaste 0
Ne 0 ""
Po -0.8 5.6
$EndPAD
$PAD
Sh "T7" C 0.35 0.35 0 0 0
At SMD N 00888000
.SolderMask 0
.SolderPaste 0
Ne 0 ""
Po -1.6 5.6
$EndPAD
$PAD
Sh "T6" C 0.35 0.35 0 0 0
At SMD N 00888000
.SolderMask 0
.SolderPaste 0
Ne 0 ""
Po -2.4 5.6
$EndPAD
$PAD
Sh "T5" C 0.35 0.35 0 0 0
At SMD N 00888000
.SolderMask 0
.SolderPaste 0
Ne 0 ""
Po -3.2 5.6
$EndPAD
$PAD
Sh "T4" C 0.35 0.35 0 0 0
At SMD N 00888000
.SolderMask 0
.SolderPaste 0
Ne 0 ""
Po -4 5.6
$EndPAD
$PAD
Sh "T3" C 0.35 0.35 0 0 0
At SMD N 00888000
.SolderMask 0
.SolderPaste 0
Ne 0 ""
Po -4.8 5.6
$EndPAD
$PAD
Sh "T2" C 0.35 0.35 0 0 0
At SMD N 00888000
.SolderMask 0
.SolderPaste 0
Ne 0 ""
Po -5.6 5.6
$EndPAD
$PAD
Sh "T1" C 0.35 0.35 0 0 0
At SMD N 00888000
.SolderMask 0
.SolderPaste 0
Ne 0 ""
Po -6.4 5.6
$EndPAD
$PAD
Sh "R17" C 0.35 0.35 0 0 0
At SMD N 00888000
.SolderMask 0
.SolderPaste 0
Ne 0 ""
Po 6.4 4.8
$EndPAD
$PAD
Sh "R16" C 0.35 0.35 0 0 0
At SMD N 00888000
.SolderMask 0
.SolderPaste 0
Ne 0 ""
Po 5.6 4.8
$EndPAD
$PAD
Sh "R15" C 0.35 0.35 0 0 0
At SMD N 00888000
.SolderMask 0
.SolderPaste 0
Ne 0 ""
Po 4.8 4.8
$EndPAD
$PAD
Sh "R14" C 0.35 0.35 0 0 0
At SMD N 00888000
.SolderMask 0
.SolderPaste 0
Ne 0 ""
Po 4 4.8
$EndPAD
$PAD
Sh "R13" C 0.35 0.35 0 0 0
At SMD N 00888000
.SolderMask 0
.SolderPaste 0
Ne 0 ""
Po 3.2 4.8
$EndPAD
$PAD
Sh "R12" C 0.35 0.35 0 0 0
At SMD N 00888000
.SolderMask 0
.SolderPaste 0
Ne 0 ""
Po 2.4 4.8
$EndPAD
$PAD
Sh "R11" C 0.35 0.35 0 0 0
At SMD N 00888000
.SolderMask 0
.SolderPaste 0
Ne 0 ""
Po 1.6 4.8
$EndPAD
$PAD
Sh "R10" C 0.35 0.35 0 0 0
At SMD N 00888000
.SolderMask 0
.SolderPaste 0
Ne 0 ""
Po 0.8 4.8
$EndPAD
$PAD
Sh "R9" C 0.35 0.35 0 0 0
At SMD N 00888000
.SolderMask 0
.SolderPaste 0
Ne 0 ""
Po 0 4.8
$EndPAD
$PAD
Sh "R8" C 0.35 0.35 0 0 0
At SMD N 00888000
.SolderMask 0
.SolderPaste 0
Ne 0 ""
Po -0.8 4.8
$EndPAD
$PAD
Sh "R7" C 0.35 0.35 0 0 0
At SMD N 00888000
.SolderMask 0
.SolderPaste 0
Ne 0 ""
Po -1.6 4.8
$EndPAD
$PAD
Sh "R6" C 0.35 0.35 0 0 0
At SMD N 00888000
.SolderMask 0
.SolderPaste 0
Ne 0 ""
Po -2.4 4.8
$EndPAD
$PAD
Sh "R5" C 0.35 0.35 0 0 0
At SMD N 00888000
.SolderMask 0
.SolderPaste 0
Ne 0 ""
Po -3.2 4.8
$EndPAD
$PAD
Sh "R4" C 0.35 0.35 0 0 0
At SMD N 00888000
.SolderMask 0
.SolderPaste 0
Ne 0 ""
Po -4 4.8
$EndPAD
$PAD
Sh "R3" C 0.35 0.35 0 0 0
At SMD N 00888000
.SolderMask 0
.SolderPaste 0
Ne 0 ""
Po -4.8 4.8
$EndPAD
$PAD
Sh "R2" C 0.35 0.35 0 0 0
At SMD N 00888000
.SolderMask 0
.SolderPaste 0
Ne 0 ""
Po -5.6 4.8
$EndPAD
$PAD
Sh "R1" C 0.35 0.35 0 0 0
At SMD N 00888000
.SolderMask 0
.SolderPaste 0
Ne 0 ""
Po -6.4 4.8
$EndPAD
$PAD
Sh "P17" C 0.35 0.35 0 0 0
At SMD N 00888000
.SolderMask 0
.SolderPaste 0
Ne 0 ""
Po 6.4 4
$EndPAD
$PAD
Sh "P16" C 0.35 0.35 0 0 0
At SMD N 00888000
.SolderMask 0
.SolderPaste 0
Ne 0 ""
Po 5.6 4
$EndPAD
$PAD
Sh "P15" C 0.35 0.35 0 0 0
At SMD N 00888000
.SolderMask 0
.SolderPaste 0
Ne 0 ""
Po 4.8 4
$EndPAD
$PAD
Sh "P14" C 0.35 0.35 0 0 0
At SMD N 00888000
.SolderMask 0
.SolderPaste 0
Ne 0 ""
Po 4 4
$EndPAD
$PAD
Sh "P13" C 0.35 0.35 0 0 0
At SMD N 00888000
.SolderMask 0
.SolderPaste 0
Ne 0 ""
Po 3.2 4
$EndPAD
$PAD
Sh "P12" C 0.35 0.35 0 0 0
At SMD N 00888000
.SolderMask 0
.SolderPaste 0
Ne 0 ""
Po 2.4 4
$EndPAD
$PAD
Sh "P11" C 0.35 0.35 0 0 0
At SMD N 00888000
.SolderMask 0
.SolderPaste 0
Ne 0 ""
Po 1.6 4
$EndPAD
$PAD
Sh "P10" C 0.35 0.35 0 0 0
At SMD N 00888000
.SolderMask 0
.SolderPaste 0
Ne 0 ""
Po 0.8 4
$EndPAD
$PAD
Sh "P9" C 0.35 0.35 0 0 0
At SMD N 00888000
.SolderMask 0
.SolderPaste 0
Ne 0 ""
Po 0 4
$EndPAD
$PAD
Sh "P8" C 0.35 0.35 0 0 0
At SMD N 00888000
.SolderMask 0
.SolderPaste 0
Ne 0 ""
Po -0.8 4
$EndPAD
$PAD
Sh "P7" C 0.35 0.35 0 0 0
At SMD N 00888000
.SolderMask 0
.SolderPaste 0
Ne 0 ""
Po -1.6 4
$EndPAD
$PAD
Sh "P6" C 0.35 0.35 0 0 0
At SMD N 00888000
.SolderMask 0
.SolderPaste 0
Ne 0 ""
Po -2.4 4
$EndPAD
$PAD
Sh "P5" C 0.35 0.35 0 0 0
At SMD N 00888000
.SolderMask 0
.SolderPaste 0
Ne 0 ""
Po -3.2 4
$EndPAD
$PAD
Sh "P4" C 0.35 0.35 0 0 0
At SMD N 00888000
.SolderMask 0
.SolderPaste 0
Ne 0 ""
Po -4 4
$EndPAD
$PAD
Sh "P3" C 0.35 0.35 0 0 0
At SMD N 00888000
.SolderMask 0
.SolderPaste 0
Ne 0 ""
Po -4.8 4
$EndPAD
$PAD
Sh "P2" C 0.35 0.35 0 0 0
At SMD N 00888000
.SolderMask 0
.SolderPaste 0
Ne 0 ""
Po -5.6 4
$EndPAD
$PAD
Sh "P1" C 0.35 0.35 0 0 0
At SMD N 00888000
.SolderMask 0
.SolderPaste 0
Ne 0 ""
Po -6.4 4
$EndPAD
$PAD
Sh "N17" C 0.35 0.35 0 0 0
At SMD N 00888000
.SolderMask 0
.SolderPaste 0
Ne 0 ""
Po 6.4 3.2
$EndPAD
$PAD
Sh "N16" C 0.35 0.35 0 0 0
At SMD N 00888000
.SolderMask 0
.SolderPaste 0
Ne 0 ""
Po 5.6 3.2
$EndPAD
$PAD
Sh "N15" C 0.35 0.35 0 0 0
At SMD N 00888000
.SolderMask 0
.SolderPaste 0
Ne 0 ""
Po 4.8 3.2
$EndPAD
$PAD
Sh "N14" C 0.35 0.35 0 0 0
At SMD N 00888000
.SolderMask 0
.SolderPaste 0
Ne 0 ""
Po 4 3.2
$EndPAD
$PAD
Sh "N13" C 0.35 0.35 0 0 0
At SMD N 00888000
.SolderMask 0
.SolderPaste 0
Ne 0 ""
Po 3.2 3.2
$EndPAD
$PAD
Sh "N12" C 0.35 0.35 0 0 0
At SMD N 00888000
.SolderMask 0
.SolderPaste 0
Ne 0 ""
Po 2.4 3.2
$EndPAD
$PAD
Sh "N11" C 0.35 0.35 0 0 0
At SMD N 00888000
.SolderMask 0
.SolderPaste 0
Ne 0 ""
Po 1.6 3.2
$EndPAD
$PAD
Sh "N10" C 0.35 0.35 0 0 0
At SMD N 00888000
.SolderMask 0
.SolderPaste 0
Ne 0 ""
Po 0.8 3.2
$EndPAD
$PAD
Sh "N9" C 0.35 0.35 0 0 0
At SMD N 00888000
.SolderMask 0
.SolderPaste 0
Ne 0 ""
Po 0 3.2
$EndPAD
$PAD
Sh "N8" C 0.35 0.35 0 0 0
At SMD N 00888000
.SolderMask 0
.SolderPaste 0
Ne 0 ""
Po -0.8 3.2
$EndPAD
$PAD
Sh "N7" C 0.35 0.35 0 0 0
At SMD N 00888000
.SolderMask 0
.SolderPaste 0
Ne 0 ""
Po -1.6 3.2
$EndPAD
$PAD
Sh "N6" C 0.35 0.35 0 0 0
At SMD N 00888000
.SolderMask 0
.SolderPaste 0
Ne 0 ""
Po -2.4 3.2
$EndPAD
$PAD
Sh "N5" C 0.35 0.35 0 0 0
At SMD N 00888000
.SolderMask 0
.SolderPaste 0
Ne 0 ""
Po -3.2 3.2
$EndPAD
$PAD
Sh "N4" C 0.35 0.35 0 0 0
At SMD N 00888000
.SolderMask 0
.SolderPaste 0
Ne 0 ""
Po -4 3.2
$EndPAD
$PAD
Sh "N3" C 0.35 0.35 0 0 0
At SMD N 00888000
.SolderMask 0
.SolderPaste 0
Ne 0 ""
Po -4.8 3.2
$EndPAD
$PAD
Sh "N2" C 0.35 0.35 0 0 0
At SMD N 00888000
.SolderMask 0
.SolderPaste 0
Ne 0 ""
Po -5.6 3.2
$EndPAD
$PAD
Sh "N1" C 0.35 0.35 0 0 0
At SMD N 00888000
.SolderMask 0
.SolderPaste 0
Ne 0 ""
Po -6.4 3.2
$EndPAD
$PAD
Sh "M17" C 0.35 0.35 0 0 0
At SMD N 00888000
.SolderMask 0
.SolderPaste 0
Ne 0 ""
Po 6.4 2.4
$EndPAD
$PAD
Sh "M16" C 0.35 0.35 0 0 0
At SMD N 00888000
.SolderMask 0
.SolderPaste 0
Ne 0 ""
Po 5.6 2.4
$EndPAD
$PAD
Sh "M15" C 0.35 0.35 0 0 0
At SMD N 00888000
.SolderMask 0
.SolderPaste 0
Ne 0 ""
Po 4.8 2.4
$EndPAD
$PAD
Sh "M14" C 0.35 0.35 0 0 0
At SMD N 00888000
.SolderMask 0
.SolderPaste 0
Ne 0 ""
Po 4 2.4
$EndPAD
$PAD
Sh "M13" C 0.35 0.35 0 0 0
At SMD N 00888000
.SolderMask 0
.SolderPaste 0
Ne 0 ""
Po 3.2 2.4
$EndPAD
$PAD
Sh "M12" C 0.35 0.35 0 0 0
At SMD N 00888000
.SolderMask 0
.SolderPaste 0
Ne 0 ""
Po 2.4 2.4
$EndPAD
$PAD
Sh "M11" C 0.35 0.35 0 0 0
At SMD N 00888000
.SolderMask 0
.SolderPaste 0
Ne 0 ""
Po 1.6 2.4
$EndPAD
$PAD
Sh "M10" C 0.35 0.35 0 0 0
At SMD N 00888000
.SolderMask 0
.SolderPaste 0
Ne 0 ""
Po 0.8 2.4
$EndPAD
$PAD
Sh "M9" C 0.35 0.35 0 0 0
At SMD N 00888000
.SolderMask 0
.SolderPaste 0
Ne 0 ""
Po 0 2.4
$EndPAD
$PAD
Sh "M8" C 0.35 0.35 0 0 0
At SMD N 00888000
.SolderMask 0
.SolderPaste 0
Ne 0 ""
Po -0.8 2.4
$EndPAD
$PAD
Sh "M7" C 0.35 0.35 0 0 0
At SMD N 00888000
.SolderMask 0
.SolderPaste 0
Ne 0 ""
Po -1.6 2.4
$EndPAD
$PAD
Sh "M6" C 0.35 0.35 0 0 0
At SMD N 00888000
.SolderMask 0
.SolderPaste 0
Ne 0 ""
Po -2.4 2.4
$EndPAD
$PAD
Sh "M5" C 0.35 0.35 0 0 0
At SMD N 00888000
.SolderMask 0
.SolderPaste 0
Ne 0 ""
Po -3.2 2.4
$EndPAD
$PAD
Sh "M4" C 0.35 0.35 0 0 0
At SMD N 00888000
.SolderMask 0
.SolderPaste 0
Ne 0 ""
Po -4 2.4
$EndPAD
$PAD
Sh "M3" C 0.35 0.35 0 0 0
At SMD N 00888000
.SolderMask 0
.SolderPaste 0
Ne 0 ""
Po -4.8 2.4
$EndPAD
$PAD
Sh "M2" C 0.35 0.35 0 0 0
At SMD N 00888000
.SolderMask 0
.SolderPaste 0
Ne 0 ""
Po -5.6 2.4
$EndPAD
$PAD
Sh "M1" C 0.35 0.35 0 0 0
At SMD N 00888000
.SolderMask 0
.SolderPaste 0
Ne 0 ""
Po -6.4 2.4
$EndPAD
$PAD
Sh "L17" C 0.35 0.35 0 0 0
At SMD N 00888000
.SolderMask 0
.SolderPaste 0
Ne 0 ""
Po 6.4 1.6
$EndPAD
$PAD
Sh "L16" C 0.35 0.35 0 0 0
At SMD N 00888000
.SolderMask 0
.SolderPaste 0
Ne 0 ""
Po 5.6 1.6
$EndPAD
$PAD
Sh "L15" C 0.35 0.35 0 0 0
At SMD N 00888000
.SolderMask 0
.SolderPaste 0
Ne 0 ""
Po 4.8 1.6
$EndPAD
$PAD
Sh "L14" C 0.35 0.35 0 0 0
At SMD N 00888000
.SolderMask 0
.SolderPaste 0
Ne 0 ""
Po 4 1.6
$EndPAD
$PAD
Sh "L13" C 0.35 0.35 0 0 0
At SMD N 00888000
.SolderMask 0
.SolderPaste 0
Ne 0 ""
Po 3.2 1.6
$EndPAD
$PAD
Sh "L12" C 0.35 0.35 0 0 0
At SMD N 00888000
.SolderMask 0
.SolderPaste 0
Ne 0 ""
Po 2.4 1.6
$EndPAD
$PAD
Sh "L11" C 0.35 0.35 0 0 0
At SMD N 00888000
.SolderMask 0
.SolderPaste 0
Ne 0 ""
Po 1.6 1.6
$EndPAD
$PAD
Sh "L10" C 0.35 0.35 0 0 0
At SMD N 00888000
.SolderMask 0
.SolderPaste 0
Ne 0 ""
Po 0.8 1.6
$EndPAD
$PAD
Sh "L9" C 0.35 0.35 0 0 0
At SMD N 00888000
.SolderMask 0
.SolderPaste 0
Ne 0 ""
Po 0 1.6
$EndPAD
$PAD
Sh "L8" C 0.35 0.35 0 0 0
At SMD N 00888000
.SolderMask 0
.SolderPaste 0
Ne 0 ""
Po -0.8 1.6
$EndPAD
$PAD
Sh "L7" C 0.35 0.35 0 0 0
At SMD N 00888000
.SolderMask 0
.SolderPaste 0
Ne 0 ""
Po -1.6 1.6
$EndPAD
$PAD
Sh "L6" C 0.35 0.35 0 0 0
At SMD N 00888000
.SolderMask 0
.SolderPaste 0
Ne 0 ""
Po -2.4 1.6
$EndPAD
$PAD
Sh "L5" C 0.35 0.35 0 0 0
At SMD N 00888000
.SolderMask 0
.SolderPaste 0
Ne 0 ""
Po -3.2 1.6
$EndPAD
$PAD
Sh "L4" C 0.35 0.35 0 0 0
At SMD N 00888000
.SolderMask 0
.SolderPaste 0
Ne 0 ""
Po -4 1.6
$EndPAD
$PAD
Sh "L3" C 0.35 0.35 0 0 0
At SMD N 00888000
.SolderMask 0
.SolderPaste 0
Ne 0 ""
Po -4.8 1.6
$EndPAD
$PAD
Sh "L2" C 0.35 0.35 0 0 0
At SMD N 00888000
.SolderMask 0
.SolderPaste 0
Ne 0 ""
Po -5.6 1.6
$EndPAD
$PAD
Sh "L1" C 0.35 0.35 0 0 0
At SMD N 00888000
.SolderMask 0
.SolderPaste 0
Ne 0 ""
Po -6.4 1.6
$EndPAD
$PAD
Sh "K17" C 0.35 0.35 0 0 0
At SMD N 00888000
.SolderMask 0
.SolderPaste 0
Ne 0 ""
Po 6.4 0.8
$EndPAD
$PAD
Sh "K16" C 0.35 0.35 0 0 0
At SMD N 00888000
.SolderMask 0
.SolderPaste 0
Ne 0 ""
Po 5.6 0.8
$EndPAD
$PAD
Sh "K15" C 0.35 0.35 0 0 0
At SMD N 00888000
.SolderMask 0
.SolderPaste 0
Ne 0 ""
Po 4.8 0.8
$EndPAD
$PAD
Sh "K14" C 0.35 0.35 0 0 0
At SMD N 00888000
.SolderMask 0
.SolderPaste 0
Ne 0 ""
Po 4 0.8
$EndPAD
$PAD
Sh "K13" C 0.35 0.35 0 0 0
At SMD N 00888000
.SolderMask 0
.SolderPaste 0
Ne 0 ""
Po 3.2 0.8
$EndPAD
$PAD
Sh "K12" C 0.35 0.35 0 0 0
At SMD N 00888000
.SolderMask 0
.SolderPaste 0
Ne 0 ""
Po 2.4 0.8
$EndPAD
$PAD
Sh "K11" C 0.35 0.35 0 0 0
At SMD N 00888000
.SolderMask 0
.SolderPaste 0
Ne 0 ""
Po 1.6 0.8
$EndPAD
$PAD
Sh "K10" C 0.35 0.35 0 0 0
At SMD N 00888000
.SolderMask 0
.SolderPaste 0
Ne 0 ""
Po 0.8 0.8
$EndPAD
$PAD
Sh "K9" C 0.35 0.35 0 0 0
At SMD N 00888000
.SolderMask 0
.SolderPaste 0
Ne 0 ""
Po 0 0.8
$EndPAD
$PAD
Sh "K8" C 0.35 0.35 0 0 0
At SMD N 00888000
.SolderMask 0
.SolderPaste 0
Ne 0 ""
Po -0.8 0.8
$EndPAD
$PAD
Sh "K7" C 0.35 0.35 0 0 0
At SMD N 00888000
.SolderMask 0
.SolderPaste 0
Ne 0 ""
Po -1.6 0.8
$EndPAD
$PAD
Sh "K6" C 0.35 0.35 0 0 0
At SMD N 00888000
.SolderMask 0
.SolderPaste 0
Ne 0 ""
Po -2.4 0.8
$EndPAD
$PAD
Sh "K5" C 0.35 0.35 0 0 0
At SMD N 00888000
.SolderMask 0
.SolderPaste 0
Ne 0 ""
Po -3.2 0.8
$EndPAD
$PAD
Sh "K4" C 0.35 0.35 0 0 0
At SMD N 00888000
.SolderMask 0
.SolderPaste 0
Ne 0 ""
Po -4 0.8
$EndPAD
$PAD
Sh "K3" C 0.35 0.35 0 0 0
At SMD N 00888000
.SolderMask 0
.SolderPaste 0
Ne 0 ""
Po -4.8 0.8
$EndPAD
$PAD
Sh "K2" C 0.35 0.35 0 0 0
At SMD N 00888000
.SolderMask 0
.SolderPaste 0
Ne 0 ""
Po -5.6 0.8
$EndPAD
$PAD
Sh "K1" C 0.35 0.35 0 0 0
At SMD N 00888000
.SolderMask 0
.SolderPaste 0
Ne 0 ""
Po -6.4 0.8
$EndPAD
$PAD
Sh "J17" C 0.35 0.35 0 0 0
At SMD N 00888000
.SolderMask 0
.SolderPaste 0
Ne 0 ""
Po 6.4 0
$EndPAD
$PAD
Sh "J16" C 0.35 0.35 0 0 0
At SMD N 00888000
.SolderMask 0
.SolderPaste 0
Ne 0 ""
Po 5.6 0
$EndPAD
$PAD
Sh "J15" C 0.35 0.35 0 0 0
At SMD N 00888000
.SolderMask 0
.SolderPaste 0
Ne 0 ""
Po 4.8 0
$EndPAD
$PAD
Sh "J14" C 0.35 0.35 0 0 0
At SMD N 00888000
.SolderMask 0
.SolderPaste 0
Ne 0 ""
Po 4 0
$EndPAD
$PAD
Sh "J13" C 0.35 0.35 0 0 0
At SMD N 00888000
.SolderMask 0
.SolderPaste 0
Ne 0 ""
Po 3.2 0
$EndPAD
$PAD
Sh "J12" C 0.35 0.35 0 0 0
At SMD N 00888000
.SolderMask 0
.SolderPaste 0
Ne 0 ""
Po 2.4 0
$EndPAD
$PAD
Sh "J11" C 0.35 0.35 0 0 0
At SMD N 00888000
.SolderMask 0
.SolderPaste 0
Ne 0 ""
Po 1.6 0
$EndPAD
$PAD
Sh "J10" C 0.35 0.35 0 0 0
At SMD N 00888000
.SolderMask 0
.SolderPaste 0
Ne 0 ""
Po 0.8 0
$EndPAD
$PAD
Sh "J9" C 0.35 0.35 0 0 0
At SMD N 00888000
.SolderMask 0
.SolderPaste 0
Ne 0 ""
Po 0 0
$EndPAD
$PAD
Sh "J8" C 0.35 0.35 0 0 0
At SMD N 00888000
.SolderMask 0
.SolderPaste 0
Ne 0 ""
Po -0.8 0
$EndPAD
$PAD
Sh "J7" C 0.35 0.35 0 0 0
At SMD N 00888000
.SolderMask 0
.SolderPaste 0
Ne 0 ""
Po -1.6 0
$EndPAD
$PAD
Sh "J6" C 0.35 0.35 0 0 0
At SMD N 00888000
.SolderMask 0
.SolderPaste 0
Ne 0 ""
Po -2.4 0
$EndPAD
$PAD
Sh "J5" C 0.35 0.35 0 0 0
At SMD N 00888000
.SolderMask 0
.SolderPaste 0
Ne 0 ""
Po -3.2 0
$EndPAD
$PAD
Sh "J4" C 0.35 0.35 0 0 0
At SMD N 00888000
.SolderMask 0
.SolderPaste 0
Ne 0 ""
Po -4 0
$EndPAD
$PAD
Sh "J3" C 0.35 0.35 0 0 0
At SMD N 00888000
.SolderMask 0
.SolderPaste 0
Ne 0 ""
Po -4.8 0
$EndPAD
$PAD
Sh "J2" C 0.35 0.35 0 0 0
At SMD N 00888000
.SolderMask 0
.SolderPaste 0
Ne 0 ""
Po -5.6 0
$EndPAD
$PAD
Sh "J1" C 0.35 0.35 0 0 0
At SMD N 00888000
.SolderMask 0
.SolderPaste 0
Ne 0 ""
Po -6.4 0
$EndPAD
$PAD
Sh "H17" C 0.35 0.35 0 0 0
At SMD N 00888000
.SolderMask 0
.SolderPaste 0
Ne 0 ""
Po 6.4 -0.8
$EndPAD
$PAD
Sh "H16" C 0.35 0.35 0 0 0
At SMD N 00888000
.SolderMask 0
.SolderPaste 0
Ne 0 ""
Po 5.6 -0.8
$EndPAD
$PAD
Sh "H15" C 0.35 0.35 0 0 0
At SMD N 00888000
.SolderMask 0
.SolderPaste 0
Ne 0 ""
Po 4.8 -0.8
$EndPAD
$PAD
Sh "H14" C 0.35 0.35 0 0 0
At SMD N 00888000
.SolderMask 0
.SolderPaste 0
Ne 0 ""
Po 4 -0.8
$EndPAD
$PAD
Sh "H13" C 0.35 0.35 0 0 0
At SMD N 00888000
.SolderMask 0
.SolderPaste 0
Ne 0 ""
Po 3.2 -0.8
$EndPAD
$PAD
Sh "H12" C 0.35 0.35 0 0 0
At SMD N 00888000
.SolderMask 0
.SolderPaste 0
Ne 0 ""
Po 2.4 -0.8
$EndPAD
$PAD
Sh "H11" C 0.35 0.35 0 0 0
At SMD N 00888000
.SolderMask 0
.SolderPaste 0
Ne 0 ""
Po 1.6 -0.8
$EndPAD
$PAD
Sh "H10" C 0.35 0.35 0 0 0
At SMD N 00888000
.SolderMask 0
.SolderPaste 0
Ne 0 ""
Po 0.8 -0.8
$EndPAD
$PAD
Sh "H9" C 0.35 0.35 0 0 0
At SMD N 00888000
.SolderMask 0
.SolderPaste 0
Ne 0 ""
Po 0 -0.8
$EndPAD
$PAD
Sh "H8" C 0.35 0.35 0 0 0
At SMD N 00888000
.SolderMask 0
.SolderPaste 0
Ne 0 ""
Po -0.8 -0.8
$EndPAD
$PAD
Sh "H7" C 0.35 0.35 0 0 0
At SMD N 00888000
.SolderMask 0
.SolderPaste 0
Ne 0 ""
Po -1.6 -0.8
$EndPAD
$PAD
Sh "H6" C 0.35 0.35 0 0 0
At SMD N 00888000
.SolderMask 0
.SolderPaste 0
Ne 0 ""
Po -2.4 -0.8
$EndPAD
$PAD
Sh "H5" C 0.35 0.35 0 0 0
At SMD N 00888000
.SolderMask 0
.SolderPaste 0
Ne 0 ""
Po -3.2 -0.8
$EndPAD
$PAD
Sh "H4" C 0.35 0.35 0 0 0
At SMD N 00888000
.SolderMask 0
.SolderPaste 0
Ne 0 ""
Po -4 -0.8
$EndPAD
$PAD
Sh "H3" C 0.35 0.35 0 0 0
At SMD N 00888000
.SolderMask 0
.SolderPaste 0
Ne 0 ""
Po -4.8 -0.8
$EndPAD
$PAD
Sh "H2" C 0.35 0.35 0 0 0
At SMD N 00888000
.SolderMask 0
.SolderPaste 0
Ne 0 ""
Po -5.6 -0.8
$EndPAD
$PAD
Sh "H1" C 0.35 0.35 0 0 0
At SMD N 00888000
.SolderMask 0
.SolderPaste 0
Ne 0 ""
Po -6.4 -0.8
$EndPAD
$PAD
Sh "G17" C 0.35 0.35 0 0 0
At SMD N 00888000
.SolderMask 0
.SolderPaste 0
Ne 0 ""
Po 6.4 -1.6
$EndPAD
$PAD
Sh "G16" C 0.35 0.35 0 0 0
At SMD N 00888000
.SolderMask 0
.SolderPaste 0
Ne 0 ""
Po 5.6 -1.6
$EndPAD
$PAD
Sh "G15" C 0.35 0.35 0 0 0
At SMD N 00888000
.SolderMask 0
.SolderPaste 0
Ne 0 ""
Po 4.8 -1.6
$EndPAD
$PAD
Sh "G14" C 0.35 0.35 0 0 0
At SMD N 00888000
.SolderMask 0
.SolderPaste 0
Ne 0 ""
Po 4 -1.6
$EndPAD
$PAD
Sh "G13" C 0.35 0.35 0 0 0
At SMD N 00888000
.SolderMask 0
.SolderPaste 0
Ne 0 ""
Po 3.2 -1.6
$EndPAD
$PAD
Sh "G12" C 0.35 0.35 0 0 0
At SMD N 00888000
.SolderMask 0
.SolderPaste 0
Ne 0 ""
Po 2.4 -1.6
$EndPAD
$PAD
Sh "G11" C 0.35 0.35 0 0 0
At SMD N 00888000
.SolderMask 0
.SolderPaste 0
Ne 0 ""
Po 1.6 -1.6
$EndPAD
$PAD
Sh "G10" C 0.35 0.35 0 0 0
At SMD N 00888000
.SolderMask 0
.SolderPaste 0
Ne 0 ""
Po 0.8 -1.6
$EndPAD
$PAD
Sh "G9" C 0.35 0.35 0 0 0
At SMD N 00888000
.SolderMask 0
.SolderPaste 0
Ne 0 ""
Po 0 -1.6
$EndPAD
$PAD
Sh "G8" C 0.35 0.35 0 0 0
At SMD N 00888000
.SolderMask 0
.SolderPaste 0
Ne 0 ""
Po -0.8 -1.6
$EndPAD
$PAD
Sh "G7" C 0.35 0.35 0 0 0
At SMD N 00888000
.SolderMask 0
.SolderPaste 0
Ne 0 ""
Po -1.6 -1.6
$EndPAD
$PAD
Sh "G6" C 0.35 0.35 0 0 0
At SMD N 00888000
.SolderMask 0
.SolderPaste 0
Ne 0 ""
Po -2.4 -1.6
$EndPAD
$PAD
Sh "G5" C 0.35 0.35 0 0 0
At SMD N 00888000
.SolderMask 0
.SolderPaste 0
Ne 0 ""
Po -3.2 -1.6
$EndPAD
$PAD
Sh "G4" C 0.35 0.35 0 0 0
At SMD N 00888000
.SolderMask 0
.SolderPaste 0
Ne 0 ""
Po -4 -1.6
$EndPAD
$PAD
Sh "G3" C 0.35 0.35 0 0 0
At SMD N 00888000
.SolderMask 0
.SolderPaste 0
Ne 0 ""
Po -4.8 -1.6
$EndPAD
$PAD
Sh "G2" C 0.35 0.35 0 0 0
At SMD N 00888000
.SolderMask 0
.SolderPaste 0
Ne 0 ""
Po -5.6 -1.6
$EndPAD
$PAD
Sh "G1" C 0.35 0.35 0 0 0
At SMD N 00888000
.SolderMask 0
.SolderPaste 0
Ne 0 ""
Po -6.4 -1.6
$EndPAD
$PAD
Sh "F17" C 0.35 0.35 0 0 0
At SMD N 00888000
.SolderMask 0
.SolderPaste 0
Ne 0 ""
Po 6.4 -2.4
$EndPAD
$PAD
Sh "F16" C 0.35 0.35 0 0 0
At SMD N 00888000
.SolderMask 0
.SolderPaste 0
Ne 0 ""
Po 5.6 -2.4
$EndPAD
$PAD
Sh "F15" C 0.35 0.35 0 0 0
At SMD N 00888000
.SolderMask 0
.SolderPaste 0
Ne 0 ""
Po 4.8 -2.4
$EndPAD
$PAD
Sh "F14" C 0.35 0.35 0 0 0
At SMD N 00888000
.SolderMask 0
.SolderPaste 0
Ne 0 ""
Po 4 -2.4
$EndPAD
$PAD
Sh "F13" C 0.35 0.35 0 0 0
At SMD N 00888000
.SolderMask 0
.SolderPaste 0
Ne 0 ""
Po 3.2 -2.4
$EndPAD
$PAD
Sh "F12" C 0.35 0.35 0 0 0
At SMD N 00888000
.SolderMask 0
.SolderPaste 0
Ne 0 ""
Po 2.4 -2.4
$EndPAD
$PAD
Sh "F11" C 0.35 0.35 0 0 0
At SMD N 00888000
.SolderMask 0
.SolderPaste 0
Ne 0 ""
Po 1.6 -2.4
$EndPAD
$PAD
Sh "F10" C 0.35 0.35 0 0 0
At SMD N 00888000
.SolderMask 0
.SolderPaste 0
Ne 0 ""
Po 0.8 -2.4
$EndPAD
$PAD
Sh "F9" C 0.35 0.35 0 0 0
At SMD N 00888000
.SolderMask 0
.SolderPaste 0
Ne 0 ""
Po 0 -2.4
$EndPAD
$PAD
Sh "F8" C 0.35 0.35 0 0 0
At SMD N 00888000
.SolderMask 0
.SolderPaste 0
Ne 0 ""
Po -0.8 -2.4
$EndPAD
$PAD
Sh "F7" C 0.35 0.35 0 0 0
At SMD N 00888000
.SolderMask 0
.SolderPaste 0
Ne 0 ""
Po -1.6 -2.4
$EndPAD
$PAD
Sh "F6" C 0.35 0.35 0 0 0
At SMD N 00888000
.SolderMask 0
.SolderPaste 0
Ne 0 ""
Po -2.4 -2.4
$EndPAD
$PAD
Sh "F5" C 0.35 0.35 0 0 0
At SMD N 00888000
.SolderMask 0
.SolderPaste 0
Ne 0 ""
Po -3.2 -2.4
$EndPAD
$PAD
Sh "F4" C 0.35 0.35 0 0 0
At SMD N 00888000
.SolderMask 0
.SolderPaste 0
Ne 0 ""
Po -4 -2.4
$EndPAD
$PAD
Sh "F3" C 0.35 0.35 0 0 0
At SMD N 00888000
.SolderMask 0
.SolderPaste 0
Ne 0 ""
Po -4.8 -2.4
$EndPAD
$PAD
Sh "F2" C 0.35 0.35 0 0 0
At SMD N 00888000
.SolderMask 0
.SolderPaste 0
Ne 0 ""
Po -5.6 -2.4
$EndPAD
$PAD
Sh "F1" C 0.35 0.35 0 0 0
At SMD N 00888000
.SolderMask 0
.SolderPaste 0
Ne 0 ""
Po -6.4 -2.4
$EndPAD
$PAD
Sh "E17" C 0.35 0.35 0 0 0
At SMD N 00888000
.SolderMask 0
.SolderPaste 0
Ne 0 ""
Po 6.4 -3.2
$EndPAD
$PAD
Sh "E16" C 0.35 0.35 0 0 0
At SMD N 00888000
.SolderMask 0
.SolderPaste 0
Ne 0 ""
Po 5.6 -3.2
$EndPAD
$PAD
Sh "E15" C 0.35 0.35 0 0 0
At SMD N 00888000
.SolderMask 0
.SolderPaste 0
Ne 0 ""
Po 4.8 -3.2
$EndPAD
$PAD
Sh "E14" C 0.35 0.35 0 0 0
At SMD N 00888000
.SolderMask 0
.SolderPaste 0
Ne 0 ""
Po 4 -3.2
$EndPAD
$PAD
Sh "E13" C 0.35 0.35 0 0 0
At SMD N 00888000
.SolderMask 0
.SolderPaste 0
Ne 0 ""
Po 3.2 -3.2
$EndPAD
$PAD
Sh "E12" C 0.35 0.35 0 0 0
At SMD N 00888000
.SolderMask 0
.SolderPaste 0
Ne 0 ""
Po 2.4 -3.2
$EndPAD
$PAD
Sh "E11" C 0.35 0.35 0 0 0
At SMD N 00888000
.SolderMask 0
.SolderPaste 0
Ne 0 ""
Po 1.6 -3.2
$EndPAD
$PAD
Sh "E10" C 0.35 0.35 0 0 0
At SMD N 00888000
.SolderMask 0
.SolderPaste 0
Ne 0 ""
Po 0.8 -3.2
$EndPAD
$PAD
Sh "E9" C 0.35 0.35 0 0 0
At SMD N 00888000
.SolderMask 0
.SolderPaste 0
Ne 0 ""
Po 0 -3.2
$EndPAD
$PAD
Sh "E8" C 0.35 0.35 0 0 0
At SMD N 00888000
.SolderMask 0
.SolderPaste 0
Ne 0 ""
Po -0.8 -3.2
$EndPAD
$PAD
Sh "E7" C 0.35 0.35 0 0 0
At SMD N 00888000
.SolderMask 0
.SolderPaste 0
Ne 0 ""
Po -1.6 -3.2
$EndPAD
$PAD
Sh "E6" C 0.35 0.35 0 0 0
At SMD N 00888000
.SolderMask 0
.SolderPaste 0
Ne 0 ""
Po -2.4 -3.2
$EndPAD
$PAD
Sh "E5" C 0.35 0.35 0 0 0
At SMD N 00888000
.SolderMask 0
.SolderPaste 0
Ne 0 ""
Po -3.2 -3.2
$EndPAD
$PAD
Sh "E4" C 0.35 0.35 0 0 0
At SMD N 00888000
.SolderMask 0
.SolderPaste 0
Ne 0 ""
Po -4 -3.2
$EndPAD
$PAD
Sh "E3" C 0.35 0.35 0 0 0
At SMD N 00888000
.SolderMask 0
.SolderPaste 0
Ne 0 ""
Po -4.8 -3.2
$EndPAD
$PAD
Sh "E2" C 0.35 0.35 0 0 0
At SMD N 00888000
.SolderMask 0
.SolderPaste 0
Ne 0 ""
Po -5.6 -3.2
$EndPAD
$PAD
Sh "E1" C 0.35 0.35 0 0 0
At SMD N 00888000
.SolderMask 0
.SolderPaste 0
Ne 0 ""
Po -6.4 -3.2
$EndPAD
$PAD
Sh "D17" C 0.35 0.35 0 0 0
At SMD N 00888000
.SolderMask 0
.SolderPaste 0
Ne 0 ""
Po 6.4 -4
$EndPAD
$PAD
Sh "D16" C 0.35 0.35 0 0 0
At SMD N 00888000
.SolderMask 0
.SolderPaste 0
Ne 0 ""
Po 5.6 -4
$EndPAD
$PAD
Sh "D15" C 0.35 0.35 0 0 0
At SMD N 00888000
.SolderMask 0
.SolderPaste 0
Ne 0 ""
Po 4.8 -4
$EndPAD
$PAD
Sh "D14" C 0.35 0.35 0 0 0
At SMD N 00888000
.SolderMask 0
.SolderPaste 0
Ne 0 ""
Po 4 -4
$EndPAD
$PAD
Sh "D13" C 0.35 0.35 0 0 0
At SMD N 00888000
.SolderMask 0
.SolderPaste 0
Ne 0 ""
Po 3.2 -4
$EndPAD
$PAD
Sh "D12" C 0.35 0.35 0 0 0
At SMD N 00888000
.SolderMask 0
.SolderPaste 0
Ne 0 ""
Po 2.4 -4
$EndPAD
$PAD
Sh "D11" C 0.35 0.35 0 0 0
At SMD N 00888000
.SolderMask 0
.SolderPaste 0
Ne 0 ""
Po 1.6 -4
$EndPAD
$PAD
Sh "D10" C 0.35 0.35 0 0 0
At SMD N 00888000
.SolderMask 0
.SolderPaste 0
Ne 0 ""
Po 0.8 -4
$EndPAD
$PAD
Sh "D9" C 0.35 0.35 0 0 0
At SMD N 00888000
.SolderMask 0
.SolderPaste 0
Ne 0 ""
Po 0 -4
$EndPAD
$PAD
Sh "D8" C 0.35 0.35 0 0 0
At SMD N 00888000
.SolderMask 0
.SolderPaste 0
Ne 0 ""
Po -0.8 -4
$EndPAD
$PAD
Sh "D7" C 0.35 0.35 0 0 0
At SMD N 00888000
.SolderMask 0
.SolderPaste 0
Ne 0 ""
Po -1.6 -4
$EndPAD
$PAD
Sh "D6" C 0.35 0.35 0 0 0
At SMD N 00888000
.SolderMask 0
.SolderPaste 0
Ne 0 ""
Po -2.4 -4
$EndPAD
$PAD
Sh "D5" C 0.35 0.35 0 0 0
At SMD N 00888000
.SolderMask 0
.SolderPaste 0
Ne 0 ""
Po -3.2 -4
$EndPAD
$PAD
Sh "D4" C 0.35 0.35 0 0 0
At SMD N 00888000
.SolderMask 0
.SolderPaste 0
Ne 0 ""
Po -4 -4
$EndPAD
$PAD
Sh "D3" C 0.35 0.35 0 0 0
At SMD N 00888000
.SolderMask 0
.SolderPaste 0
Ne 0 ""
Po -4.8 -4
$EndPAD
$PAD
Sh "D2" C 0.35 0.35 0 0 0
At SMD N 00888000
.SolderMask 0
.SolderPaste 0
Ne 0 ""
Po -5.6 -4
$EndPAD
$PAD
Sh "D1" C 0.35 0.35 0 0 0
At SMD N 00888000
.SolderMask 0
.SolderPaste 0
Ne 0 ""
Po -6.4 -4
$EndPAD
$PAD
Sh "C17" C 0.35 0.35 0 0 0
At SMD N 00888000
.SolderMask 0
.SolderPaste 0
Ne 0 ""
Po 6.4 -4.8
$EndPAD
$PAD
Sh "C16" C 0.35 0.35 0 0 0
At SMD N 00888000
.SolderMask 0
.SolderPaste 0
Ne 0 ""
Po 5.6 -4.8
$EndPAD
$PAD
Sh "C15" C 0.35 0.35 0 0 0
At SMD N 00888000
.SolderMask 0
.SolderPaste 0
Ne 0 ""
Po 4.8 -4.8
$EndPAD
$PAD
Sh "C14" C 0.35 0.35 0 0 0
At SMD N 00888000
.SolderMask 0
.SolderPaste 0
Ne 0 ""
Po 4 -4.8
$EndPAD
$PAD
Sh "C13" C 0.35 0.35 0 0 0
At SMD N 00888000
.SolderMask 0
.SolderPaste 0
Ne 0 ""
Po 3.2 -4.8
$EndPAD
$PAD
Sh "C12" C 0.35 0.35 0 0 0
At SMD N 00888000
.SolderMask 0
.SolderPaste 0
Ne 0 ""
Po 2.4 -4.8
$EndPAD
$PAD
Sh "C11" C 0.35 0.35 0 0 0
At SMD N 00888000
.SolderMask 0
.SolderPaste 0
Ne 0 ""
Po 1.6 -4.8
$EndPAD
$PAD
Sh "C10" C 0.35 0.35 0 0 0
At SMD N 00888000
.SolderMask 0
.SolderPaste 0
Ne 0 ""
Po 0.8 -4.8
$EndPAD
$PAD
Sh "C9" C 0.35 0.35 0 0 0
At SMD N 00888000
.SolderMask 0
.SolderPaste 0
Ne 0 ""
Po 0 -4.8
$EndPAD
$PAD
Sh "C8" C 0.35 0.35 0 0 0
At SMD N 00888000
.SolderMask 0
.SolderPaste 0
Ne 0 ""
Po -0.8 -4.8
$EndPAD
$PAD
Sh "C7" C 0.35 0.35 0 0 0
At SMD N 00888000
.SolderMask 0
.SolderPaste 0
Ne 0 ""
Po -1.6 -4.8
$EndPAD
$PAD
Sh "C6" C 0.35 0.35 0 0 0
At SMD N 00888000
.SolderMask 0
.SolderPaste 0
Ne 0 ""
Po -2.4 -4.8
$EndPAD
$PAD
Sh "C5" C 0.35 0.35 0 0 0
At SMD N 00888000
.SolderMask 0
.SolderPaste 0
Ne 0 ""
Po -3.2 -4.8
$EndPAD
$PAD
Sh "C4" C 0.35 0.35 0 0 0
At SMD N 00888000
.SolderMask 0
.SolderPaste 0
Ne 0 ""
Po -4 -4.8
$EndPAD
$PAD
Sh "C3" C 0.35 0.35 0 0 0
At SMD N 00888000
.SolderMask 0
.SolderPaste 0
Ne 0 ""
Po -4.8 -4.8
$EndPAD
$PAD
Sh "C2" C 0.35 0.35 0 0 0
At SMD N 00888000
.SolderMask 0
.SolderPaste 0
Ne 0 ""
Po -5.6 -4.8
$EndPAD
$PAD
Sh "C1" C 0.35 0.35 0 0 0
At SMD N 00888000
.SolderMask 0
.SolderPaste 0
Ne 0 ""
Po -6.4 -4.8
$EndPAD
$PAD
Sh "B17" C 0.35 0.35 0 0 0
At SMD N 00888000
.SolderMask 0
.SolderPaste 0
Ne 0 ""
Po 6.4 -5.6
$EndPAD
$PAD
Sh "B16" C 0.35 0.35 0 0 0
At SMD N 00888000
.SolderMask 0
.SolderPaste 0
Ne 0 ""
Po 5.6 -5.6
$EndPAD
$PAD
Sh "B15" C 0.35 0.35 0 0 0
At SMD N 00888000
.SolderMask 0
.SolderPaste 0
Ne 0 ""
Po 4.8 -5.6
$EndPAD
$PAD
Sh "B14" C 0.35 0.35 0 0 0
At SMD N 00888000
.SolderMask 0
.SolderPaste 0
Ne 0 ""
Po 4 -5.6
$EndPAD
$PAD
Sh "B13" C 0.35 0.35 0 0 0
At SMD N 00888000
.SolderMask 0
.SolderPaste 0
Ne 0 ""
Po 3.2 -5.6
$EndPAD
$PAD
Sh "B12" C 0.35 0.35 0 0 0
At SMD N 00888000
.SolderMask 0
.SolderPaste 0
Ne 0 ""
Po 2.4 -5.6
$EndPAD
$PAD
Sh "B11" C 0.35 0.35 0 0 0
At SMD N 00888000
.SolderMask 0
.SolderPaste 0
Ne 0 ""
Po 1.6 -5.6
$EndPAD
$PAD
Sh "B10" C 0.35 0.35 0 0 0
At SMD N 00888000
.SolderMask 0
.SolderPaste 0
Ne 0 ""
Po 0.8 -5.6
$EndPAD
$PAD
Sh "B9" C 0.35 0.35 0 0 0
At SMD N 00888000
.SolderMask 0
.SolderPaste 0
Ne 0 ""
Po 0 -5.6
$EndPAD
$PAD
Sh "B8" C 0.35 0.35 0 0 0
At SMD N 00888000
.SolderMask 0
.SolderPaste 0
Ne 0 ""
Po -0.8 -5.6
$EndPAD
$PAD
Sh "B7" C 0.35 0.35 0 0 0
At SMD N 00888000
.SolderMask 0
.SolderPaste 0
Ne 0 ""
Po -1.6 -5.6
$EndPAD
$PAD
Sh "B6" C 0.35 0.35 0 0 0
At SMD N 00888000
.SolderMask 0
.SolderPaste 0
Ne 0 ""
Po -2.4 -5.6
$EndPAD
$PAD
Sh "B5" C 0.35 0.35 0 0 0
At SMD N 00888000
.SolderMask 0
.SolderPaste 0
Ne 0 ""
Po -3.2 -5.6
$EndPAD
$PAD
Sh "B4" C 0.35 0.35 0 0 0
At SMD N 00888000
.SolderMask 0
.SolderPaste 0
Ne 0 ""
Po -4 -5.6
$EndPAD
$PAD
Sh "B3" C 0.35 0.35 0 0 0
At SMD N 00888000
.SolderMask 0
.SolderPaste 0
Ne 0 ""
Po -4.8 -5.6
$EndPAD
$PAD
Sh "B2" C 0.35 0.35 0 0 0
At SMD N 00888000
.SolderMask 0
.SolderPaste 0
Ne 0 ""
Po -5.6 -5.6
$EndPAD
$PAD
Sh "B1" C 0.35 0.35 0 0 0
At SMD N 00888000
.SolderMask 0
.SolderPaste 0
Ne 0 ""
Po -6.4 -5.6
$EndPAD
$PAD
Sh "A17" C 0.35 0.35 0 0 0
At SMD N 00888000
.SolderMask 0
.SolderPaste 0
Ne 0 ""
Po 6.4 -6.4
$EndPAD
$PAD
Sh "A16" C 0.35 0.35 0 0 0
At SMD N 00888000
.SolderMask 0
.SolderPaste 0
Ne 0 ""
Po 5.6 -6.4
$EndPAD
$PAD
Sh "A15" C 0.35 0.35 0 0 0
At SMD N 00888000
.SolderMask 0
.SolderPaste 0
Ne 0 ""
Po 4.8 -6.4
$EndPAD
$PAD
Sh "A14" C 0.35 0.35 0 0 0
At SMD N 00888000
.SolderMask 0
.SolderPaste 0
Ne 0 ""
Po 4 -6.4
$EndPAD
$PAD
Sh "A13" C 0.35 0.35 0 0 0
At SMD N 00888000
.SolderMask 0
.SolderPaste 0
Ne 0 ""
Po 3.2 -6.4
$EndPAD
$PAD
Sh "A12" C 0.35 0.35 0 0 0
At SMD N 00888000
.SolderMask 0
.SolderPaste 0
Ne 0 ""
Po 2.4 -6.4
$EndPAD
$PAD
Sh "A11" C 0.35 0.35 0 0 0
At SMD N 00888000
.SolderMask 0
.SolderPaste 0
Ne 0 ""
Po 1.6 -6.4
$EndPAD
$PAD
Sh "A10" C 0.35 0.35 0 0 0
At SMD N 00888000
.SolderMask 0
.SolderPaste 0
Ne 0 ""
Po 0.8 -6.4
$EndPAD
$PAD
Sh "A9" C 0.35 0.35 0 0 0
At SMD N 00888000
.SolderMask 0
.SolderPaste 0
Ne 0 ""
Po 0 -6.4
$EndPAD
$PAD
Sh "A8" C 0.35 0.35 0 0 0
At SMD N 00888000
.SolderMask 0
.SolderPaste 0
Ne 0 ""
Po -0.8 -6.4
$EndPAD
$PAD
Sh "A7" C 0.35 0.35 0 0 0
At SMD N 00888000
.SolderMask 0
.SolderPaste 0
Ne 0 ""
Po -1.6 -6.4
$EndPAD
$PAD
Sh "A6" C 0.35 0.35 0 0 0
At SMD N 00888000
.SolderMask 0
.SolderPaste 0
Ne 0 ""
Po -2.4 -6.4
$EndPAD
$PAD
Sh "A5" C 0.35 0.35 0 0 0
At SMD N 00888000
.SolderMask 0
.SolderPaste 0
Ne 0 ""
Po -3.2 -6.4
$EndPAD
$PAD
Sh "A4" C 0.35 0.35 0 0 0
At SMD N 00888000
.SolderMask 0
.SolderPaste 0
Ne 0 ""
Po -4 -6.4
$EndPAD
$PAD
Sh "A3" C 0.35 0.35 0 0 0
At SMD N 00888000
.SolderMask 0
.SolderPaste 0
Ne 0 ""
Po -4.8 -6.4
$EndPAD
$PAD
Sh "A2" C 0.35 0.35 0 0 0
At SMD N 00888000
.SolderMask 0
.SolderPaste 0
Ne 0 ""
Po -5.6 -6.4
$EndPAD
$PAD
Sh "A1" C 0.35 0.35 0 0 0
At SMD N 00888000
.SolderMask 0
.SolderPaste 0
Ne 0 ""
Po -6.4 -6.4
$EndPAD
$EndMODULE BGA289C80P17X17_1400X1400X132
