(export (version D)
  (design
    (source /home/octopus/Documents/ddr3/testHardware/testHardware/testHardware.sch)
    (date "Sun 31 Mar 2019 07:30:16 PM MSK")
    (tool "Eeschema 5.1.0-060a0da~80~ubuntu18.10.1")
    (sheet (number 1) (name /) (tstamps /)
      (title_block
        (title)
        (company)
        (rev)
        (date)
        (source testHardware.sch)
        (comment (number 1) (value ""))
        (comment (number 2) (value ""))
        (comment (number 3) (value ""))
        (comment (number 4) (value "")))))
  (components
    (comp (ref U1)
      (value MT41K256M16HA-125_E)
      (footprint MT41K256M16HA-125_E:BGA96C80P6X16_900X1400X120N)
      (fields
        (field (name Field4) MT41K256M16HA-125:E)
        (field (name Field5) "Micron Technology")
        (field (name Field6) "V80a .256mx16 Ddr3 Sdram Plastic Commercial Pbf Fbga 1.35v")
        (field (name Field7) Unavailable)
        (field (name Field8) None))
      (libsource (lib MT41K256M16HA-125_E) (part MT41K256M16HA-125_E) (description ""))
      (sheetpath (names /) (tstamps /))
      (tstamp 5C975BB7))
    (comp (ref U2)
      (value MCIMX6Y2DVM05AAR)
      (footprint BGA289C80P17X17_1400X1400X132:BGA289C80P17X17_1400X1400X132)
      (libsource (lib CPU_NXP_IMX) (part MCIMX6Y2DVM05AAR) (description ""))
      (sheetpath (names /) (tstamps /))
      (tstamp 5C97FC5B)))
  (libparts
    (libpart (lib CPU_NXP_IMX) (part MCIMX6Y2DVM05AAR)
      (fields
        (field (name Reference) U)
        (field (name Value) MCIMX6Y2DVM05AAR))
      (pins
        (pin (num F1) (name DRAM_ODT1) (type unspc))
        (pin (num G1) (name DRAM_ADDR14) (type unspc))
        (pin (num G2) (name DRAM_ADDR06) (type unspc))
        (pin (num G4) (name DRAM_RESET) (type unspc))
        (pin (num H1) (name DRAM_SDBA1) (type unspc))
        (pin (num H2) (name DRAM_ADDR01) (type unspc))
        (pin (num H3) (name DRAM_ADDR13) (type unspc))
        (pin (num H4) (name DRAM_ADDR07) (type unspc))
        (pin (num H5) (name DRAM_CS1_B) (type unspc))
        (pin (num J1) (name DRAM_SDWE_B) (type unspc))
        (pin (num J2) (name DRAM_CAS_B) (type unspc))
        (pin (num J3) (name DRAM_SDCKE1) (type unspc))
        (pin (num J4) (name DRAM_ADDR08) (type unspc))
        (pin (num K1) (name DRAM_ADDR02) (type unspc))
        (pin (num K2) (name DRAM_SDBA2) (type unspc))
        (pin (num K3) (name DRAM_ADDR11) (type unspc))
        (pin (num K4) (name DRAM_ADDR04) (type unspc))
        (pin (num K5) (name DRAM_ADDR15) (type unspc))
        (pin (num L1) (name DRAM_ADDR05) (type unspc))
        (pin (num L2) (name DRAM_ADDR09) (type unspc))
        (pin (num L4) (name DRAM_ADDR12) (type unspc))
        (pin (num L5) (name DRAM_ADR00) (type unspc))
        (pin (num M1) (name DRAM_SDBA0) (type unspc))
        (pin (num M2) (name DRAM_ADDR03) (type unspc))
        (pin (num M3) (name DRAM_SDCKE0) (type unspc))
        (pin (num M4) (name DRAM_ADDR10) (type unspc))
        (pin (num M5) (name DRAM_RAS_B) (type unspc))
        (pin (num N1) (name DRAM_ODT0) (type unspc))
        (pin (num N2) (name DRAM_CS0_B) (type unspc))
        (pin (num N4) (name DRAM_ZQPAD) (type unspc))
        (pin (num P1) (name DRAM_SDCLK0_P) (type unspc))
        (pin (num P2) (name DRAM_SDCLK0_N) (type unspc))
        (pin (num P3) (name DRAM_DATA13) (type unspc))
        (pin (num P5) (name DRAM_DATA12) (type unspc))
        (pin (num P6) (name DRAM_SDQS0_P) (type unspc))
        (pin (num P7) (name DRAM_SDQS0_N) (type unspc))
        (pin (num R1) (name DRAM_DATA15) (type unspc))
        (pin (num R2) (name DRAM_DATA14) (type unspc))
        (pin (num R4) (name DRAM_DATA11) (type unspc))
        (pin (num T1) (name DRAM_SDQS1_P) (type unspc))
        (pin (num T2) (name DRAM_SDQS1_N) (type unspc))
        (pin (num T3) (name DRAM_DQM1) (type unspc))
        (pin (num T4) (name DRAM_DATA00) (type unspc))
        (pin (num T5) (name DRAM_DATA06) (type unspc))
        (pin (num T6) (name DRAM_DATA02) (type unspc))
        (pin (num T7) (name DRAM_DQM0) (type unspc))
        (pin (num T8) (name DRAM_DATA05) (type unspc))
        (pin (num U2) (name DRAM_DATA08) (type unspc))
        (pin (num U3) (name DRAM_DATA09) (type unspc))
        (pin (num U4) (name DRAM_DATA07) (type unspc))
        (pin (num U5) (name DRAM_DATA10) (type unspc))
        (pin (num U6) (name DRAM_DATA01) (type unspc))
        (pin (num U7) (name DRAM_DATA03) (type unspc))
        (pin (num U8) (name DRAM_DATA04) (type unspc))))
    (libpart (lib MT41K256M16HA-125_E) (part MT41K256M16HA-125_E)
      (fields
        (field (name Reference) U)
        (field (name Value) MT41K256M16HA-125_E)
        (field (name Footprint) BGA96C80P6X16_900X1400X120N)
        (field (name Datasheet) "FBGA-96 Micron")
        (field (name Field4) MT41K256M16HA-125:E)
        (field (name Field5) "Micron Technology")
        (field (name Field6) "V80a .256mx16 Ddr3 Sdram Plastic Commercial Pbf Fbga 1.35v")
        (field (name Field7) Unavailable)
        (field (name Field8) None))
      (pins
        (pin (num A1) (name VDDQ) (type power_in))
        (pin (num A2) (name DQ13) (type BiDi))
        (pin (num A3) (name DQ15) (type BiDi))
        (pin (num A7) (name DQ12) (type BiDi))
        (pin (num A8) (name VDDQ) (type power_in))
        (pin (num A9) (name VSS) (type power_in))
        (pin (num B1) (name VSSQ) (type power_in))
        (pin (num B2) (name VDD) (type power_in))
        (pin (num B3) (name VSS) (type power_in))
        (pin (num B7) (name ~UDQS~) (type BiDi))
        (pin (num B8) (name DQ14) (type BiDi))
        (pin (num B9) (name VSSQ) (type power_in))
        (pin (num C1) (name VDDQ) (type power_in))
        (pin (num C2) (name DQ11) (type BiDi))
        (pin (num C3) (name DQ9) (type BiDi))
        (pin (num C7) (name UDQS) (type BiDi))
        (pin (num C8) (name DQ10) (type BiDi))
        (pin (num C9) (name VDDQ) (type power_in))
        (pin (num D1) (name VSSQ) (type power_in))
        (pin (num D2) (name VDDQ) (type power_in))
        (pin (num D3) (name UDM) (type input))
        (pin (num D7) (name DQ8) (type BiDi))
        (pin (num D8) (name VSSQ) (type power_in))
        (pin (num D9) (name VDD) (type power_in))
        (pin (num E1) (name VSS) (type power_in))
        (pin (num E2) (name VSSQ) (type power_in))
        (pin (num E3) (name DQ0) (type BiDi))
        (pin (num E7) (name LDM) (type input))
        (pin (num E8) (name VSSQ) (type power_in))
        (pin (num E9) (name VDDQ) (type power_in))
        (pin (num F1) (name VDDQ) (type power_in))
        (pin (num F2) (name DQ2) (type BiDi))
        (pin (num F3) (name LDQS) (type BiDi))
        (pin (num F7) (name DQ1) (type BiDi))
        (pin (num F8) (name DQ3) (type BiDi))
        (pin (num F9) (name VSSQ) (type power_in))
        (pin (num G1) (name VSSQ) (type power_in))
        (pin (num G2) (name DQ6) (type BiDi))
        (pin (num G3) (name ~LDQS~) (type BiDi))
        (pin (num G7) (name VDD) (type power_in))
        (pin (num G8) (name VSS) (type power_in))
        (pin (num G9) (name VSSQ) (type power_in))
        (pin (num H1) (name VREFDQ) (type power_in))
        (pin (num H2) (name VDDQ) (type power_in))
        (pin (num H3) (name DQ4) (type BiDi))
        (pin (num H7) (name DQ7) (type BiDi))
        (pin (num H8) (name DQ5) (type BiDi))
        (pin (num H9) (name VDDQ) (type power_in))
        (pin (num J2) (name VSS) (type power_in))
        (pin (num J3) (name ~RAS~) (type input))
        (pin (num J7) (name CK) (type input))
        (pin (num J8) (name VSS) (type power_in))
        (pin (num K1) (name ODT) (type input))
        (pin (num K2) (name VDD) (type power_in))
        (pin (num K3) (name ~CAS~) (type input))
        (pin (num K7) (name ~CK~) (type input))
        (pin (num K8) (name VDD) (type power_in))
        (pin (num K9) (name CKE) (type input))
        (pin (num L2) (name ~CS~) (type input))
        (pin (num L3) (name ~WE~) (type input))
        (pin (num L7) (name A10/AP) (type input))
        (pin (num L8) (name ZQ) (type passive))
        (pin (num M1) (name VSS) (type power_in))
        (pin (num M2) (name BA0) (type input))
        (pin (num M3) (name BA2) (type input))
        (pin (num M8) (name VREFCA) (type power_in))
        (pin (num M9) (name VSS) (type power_in))
        (pin (num N1) (name VDD) (type power_in))
        (pin (num N2) (name A3) (type input))
        (pin (num N3) (name A0) (type input))
        (pin (num N7) (name A12/!BC) (type input))
        (pin (num N8) (name BA1) (type input))
        (pin (num N9) (name VDD) (type power_in))
        (pin (num P1) (name VSS) (type power_in))
        (pin (num P2) (name A5) (type input))
        (pin (num P3) (name A2) (type input))
        (pin (num P7) (name A1) (type input))
        (pin (num P8) (name A4) (type input))
        (pin (num P9) (name VSS) (type power_in))
        (pin (num R1) (name VDD) (type power_in))
        (pin (num R2) (name A7) (type input))
        (pin (num R3) (name A9) (type input))
        (pin (num R7) (name A11) (type input))
        (pin (num R8) (name A6) (type input))
        (pin (num R9) (name VDD) (type power_in))
        (pin (num T1) (name VSS) (type power_in))
        (pin (num T2) (name ~RESET~) (type input))
        (pin (num T3) (name A13) (type input))
        (pin (num T7) (name A14) (type input))
        (pin (num T8) (name A8) (type input))
        (pin (num T9) (name VSS) (type power_in)))))
  (libraries
    (library (logical CPU_NXP_IMX)
      (uri /home/octopus/Downloads/kicad-symbols-master/CPU_NXP_IMX.lib))
    (library (logical MT41K256M16HA-125_E)
      (uri /home/octopus/Documents/ddr3/testHardware/MT41K256M16HA-125_E.lib)))
  (nets
    (net (code 1) (name /ba2)
      (node (ref U2) (pin K2))
      (node (ref U1) (pin M3)))
    (net (code 2) (name /ba1)
      (node (ref U2) (pin H1))
      (node (ref U1) (pin N8)))
    (net (code 3) (name /ba0)
      (node (ref U2) (pin M1))
      (node (ref U1) (pin M2)))
    (net (code 4) (name /cke)
      (node (ref U2) (pin M3))
      (node (ref U1) (pin K9)))
    (net (code 5) (name /~cas)
      (node (ref U1) (pin K3))
      (node (ref U2) (pin J2)))
    (net (code 6) (name /~cs)
      (node (ref U1) (pin L2))
      (node (ref U2) (pin N2)))
    (net (code 7) (name /~we)
      (node (ref U2) (pin J1))
      (node (ref U1) (pin L3)))
    (net (code 8) (name /~ras)
      (node (ref U1) (pin J3))
      (node (ref U2) (pin M5)))
    (net (code 9) (name /ck_N)
      (node (ref U2) (pin P1))
      (node (ref U1) (pin K7)))
    (net (code 10) (name /~reset)
      (node (ref U2) (pin G4))
      (node (ref U1) (pin T2)))
    (net (code 11) (name /dm1)
      (node (ref U2) (pin T3))
      (node (ref U1) (pin D3)))
    (net (code 12) (name /odt)
      (node (ref U1) (pin K1))
      (node (ref U2) (pin N1)))
    (net (code 13) (name /dm0)
      (node (ref U1) (pin E7))
      (node (ref U2) (pin T7)))
    (net (code 14) (name /a6)
      (node (ref U2) (pin G2))
      (node (ref U1) (pin R8)))
    (net (code 15) (name /a5)
      (node (ref U2) (pin L1))
      (node (ref U1) (pin P2)))
    (net (code 16) (name /a4)
      (node (ref U1) (pin P8))
      (node (ref U2) (pin K4)))
    (net (code 17) (name /a3)
      (node (ref U1) (pin N2))
      (node (ref U2) (pin M2)))
    (net (code 18) (name /a2)
      (node (ref U2) (pin K1))
      (node (ref U1) (pin P3)))
    (net (code 19) (name /a1)
      (node (ref U2) (pin H2))
      (node (ref U1) (pin P7)))
    (net (code 20) (name /a0)
      (node (ref U2) (pin L5))
      (node (ref U1) (pin N3)))
    (net (code 21) (name /a7)
      (node (ref U1) (pin R2))
      (node (ref U2) (pin H4)))
    (net (code 22) (name /ck_P)
      (node (ref U1) (pin J7))
      (node (ref U2) (pin P2)))
    (net (code 23) (name /a11)
      (node (ref U2) (pin K3))
      (node (ref U1) (pin R7)))
    (net (code 24) (name /a14)
      (node (ref U2) (pin G1))
      (node (ref U1) (pin T7)))
    (net (code 25) (name /a13)
      (node (ref U2) (pin H3))
      (node (ref U1) (pin T3)))
    (net (code 26) (name /a12)
      (node (ref U2) (pin L4))
      (node (ref U1) (pin N7)))
    (net (code 27) (name /a10)
      (node (ref U2) (pin M4))
      (node (ref U1) (pin L7)))
    (net (code 28) (name /a9)
      (node (ref U2) (pin L2))
      (node (ref U1) (pin R3)))
    (net (code 29) (name /a8)
      (node (ref U1) (pin T8))
      (node (ref U2) (pin J4)))
    (net (code 30) (name /ldqs_N)
      (node (ref U2) (pin P6))
      (node (ref U1) (pin G3)))
    (net (code 31) (name /ldqs_P)
      (node (ref U2) (pin P7))
      (node (ref U1) (pin F3)))
    (net (code 32) (name /udqs_N)
      (node (ref U2) (pin T1))
      (node (ref U1) (pin B7)))
    (net (code 33) (name /udqs_P)
      (node (ref U2) (pin T2))
      (node (ref U1) (pin C7)))
    (net (code 34) (name /dq15)
      (node (ref U2) (pin R1))
      (node (ref U1) (pin A3)))
    (net (code 35) (name /dq14)
      (node (ref U2) (pin R2))
      (node (ref U1) (pin B8)))
    (net (code 36) (name /dq13)
      (node (ref U2) (pin P3))
      (node (ref U1) (pin A2)))
    (net (code 37) (name /dq12)
      (node (ref U2) (pin P5))
      (node (ref U1) (pin A7)))
    (net (code 38) (name /dq11)
      (node (ref U1) (pin C2))
      (node (ref U2) (pin R4)))
    (net (code 39) (name /dq10)
      (node (ref U2) (pin U5))
      (node (ref U1) (pin C8)))
    (net (code 40) (name /dq9)
      (node (ref U2) (pin U3))
      (node (ref U1) (pin C3)))
    (net (code 41) (name /dq8)
      (node (ref U2) (pin U2))
      (node (ref U1) (pin D7)))
    (net (code 42) (name "Net-(U1-PadB2)")
      (node (ref U1) (pin R9))
      (node (ref U1) (pin B2))
      (node (ref U1) (pin R1))
      (node (ref U1) (pin D9))
      (node (ref U1) (pin N9))
      (node (ref U1) (pin N1))
      (node (ref U1) (pin K8))
      (node (ref U1) (pin K2))
      (node (ref U1) (pin G7)))
    (net (code 43) (name "Net-(U1-PadA1)")
      (node (ref U1) (pin A1))
      (node (ref U1) (pin H2))
      (node (ref U1) (pin H9))
      (node (ref U1) (pin E9))
      (node (ref U1) (pin D2))
      (node (ref U1) (pin C9))
      (node (ref U1) (pin F1))
      (node (ref U1) (pin A8))
      (node (ref U1) (pin C1)))
    (net (code 44) (name "Net-(U1-PadA9)")
      (node (ref U1) (pin T1))
      (node (ref U1) (pin E1))
      (node (ref U1) (pin G8))
      (node (ref U1) (pin J8))
      (node (ref U1) (pin M1))
      (node (ref U1) (pin M9))
      (node (ref U1) (pin P1))
      (node (ref U1) (pin P9))
      (node (ref U1) (pin B3))
      (node (ref U1) (pin A9))
      (node (ref U1) (pin J2))
      (node (ref U1) (pin T9)))
    (net (code 45) (name "Net-(U1-PadB1)")
      (node (ref U1) (pin D8))
      (node (ref U1) (pin G9))
      (node (ref U1) (pin G1))
      (node (ref U1) (pin F9))
      (node (ref U1) (pin E8))
      (node (ref U1) (pin E2))
      (node (ref U1) (pin D1))
      (node (ref U1) (pin B9))
      (node (ref U1) (pin B1)))
    (net (code 46) (name "Net-(U1-PadL8)")
      (node (ref U1) (pin L8)))
    (net (code 47) (name "Net-(U1-PadH1)")
      (node (ref U1) (pin H1)))
    (net (code 48) (name "Net-(U1-PadM8)")
      (node (ref U1) (pin M8)))
    (net (code 49) (name /dq4)
      (node (ref U1) (pin H3))
      (node (ref U2) (pin U8)))
    (net (code 50) (name /dq3)
      (node (ref U2) (pin U7))
      (node (ref U1) (pin F8)))
    (net (code 51) (name /dq1)
      (node (ref U2) (pin U6))
      (node (ref U1) (pin F7)))
    (net (code 52) (name /dq7)
      (node (ref U2) (pin U4))
      (node (ref U1) (pin H7)))
    (net (code 53) (name /dq5)
      (node (ref U1) (pin H8))
      (node (ref U2) (pin T8)))
    (net (code 54) (name /dq2)
      (node (ref U2) (pin T6))
      (node (ref U1) (pin F2)))
    (net (code 55) (name /dq6)
      (node (ref U1) (pin G2))
      (node (ref U2) (pin T5)))
    (net (code 56) (name /dq0)
      (node (ref U1) (pin E3))
      (node (ref U2) (pin T4)))
    (net (code 57) (name "Net-(U2-PadK5)")
      (node (ref U2) (pin K5)))
    (net (code 58) (name "Net-(U2-PadJ3)")
      (node (ref U2) (pin J3)))
    (net (code 59) (name "Net-(U2-PadH5)")
      (node (ref U2) (pin H5)))
    (net (code 60) (name "Net-(U2-PadF1)")
      (node (ref U2) (pin F1)))
    (net (code 61) (name "Net-(U2-PadN4)")
      (node (ref U2) (pin N4)))))